\relax 
\citation{King2016-it}
\citation{Lewis2012-mu}
\citation{Beard2002-xt,Warren2007-wm,Henry2007-xp,Schellenberger2011-bq,Price2006-ua,Bordel2010-pl,Fleming2010-py,Holzhutter2004-qj,Fleming2009-um,Kummel2006-qn,Henry2006-nt,Hoppe2007-sw,De_Martino2012-cj,Tepper2013-gd,Nolan2006-eg,Nagrath2007-bn,Boghigian2010-vz}
\citation{Henry2007-xp}
\citation{Schellenberger2011-bq}
\@writefile{toc}{\contentsline {section}{\numberline {1}Abstract}{1}}
\@writefile{toc}{\contentsline {section}{\numberline {2}Introduction}{1}}
\citation{Schilling2000-rn,Beard2002-xt}
\citation{Price2002-ef,Kummel2006-qn,Price2006-ua,Wright2008-rh}
\citation{Schellenberger2011-bq}
\citation{Noor2012-qb}
\@writefile{toc}{\contentsline {subsection}{\numberline {2.1}Steady-state assumption}{2}}
\newlabel{eq:st1}{{2}{2}}
\newlabel{eq:st2}{{3}{2}}
\@writefile{toc}{\contentsline {subsection}{\numberline {2.2}Extreme pathways}{2}}
\@writefile{lof}{\contentsline {figure}{\numberline {1}{\ignorespaces \textbf  {The Three Types of Extreme Pathways.} A small toy model with 8 internal reactions (grey), 2 primary exchange reactions (magenta), and one currency exchange reaction (green). In this simple network, one can identify all three types of extreme pathways. The Type I pathway (connecting between $A_{ex}$ and $E_{ex}$, cyan) is typically the type of solution that most constrain-based models are seeking. The Type II pathway ($A \rightarrow B \rightarrow C \rightarrow A$, blue) is a typical futile cycle, since it does not involve any primary exchange reactions, but does \emph  {waste} ATP. The Type III pathway ($A \rightarrow C \rightarrow D \rightarrow A$, red) is called internal since none of its reactions are exchange reactions. An internal cycle will never be thermodynamically feasible.}}{2}}
\newlabel{fig:cycles}{{1}{2}}
\citation{Fritzemeier2017-ba}
\citation{Fritzemeier2017-ba}
\citation{DeMartino2013,Desouki2015-lh}
\citation{Carrera2014-ys}
\citation{Fritzemeier2017-ba}
\citation{Orth2011-qi}
\citation{Fritzemeier2017-ba}
\citation{Mavrovouniotis1996-dq,Mavrovouniotis1993-zq}
\citation{Mavrovouniotis1990-wv,Mavrovouniotis1991-kf}
\citation{Mavrovouniotis1993-zq,Mavrovouniotis1996-dq}
\citation{Lardy1945-ze}
\citation{Krimsky1959-mt}
\citation{Reeves1968-mq}
\citation{De_Meis1982-pe}
\citation{Flamholz2011}
\@writefile{toc}{\contentsline {subsection}{\numberline {2.3}Example of an Energy Generating Cycle in iJO1366}{4}}
\@writefile{toc}{\contentsline {subsection}{\numberline {2.4}Distributed Thermodynamic Bottlenecks}{4}}
\@writefile{toc}{\contentsline {subsubsection}{\numberline {2.4.1}Example of Distributed Energy Generating Cycle in the Central Metabolism of E. coli}{4}}
\@writefile{lof}{\contentsline {figure}{\numberline {2}{\ignorespaces \textbf  {An Energy Generating Cycle.} Reaction (red) and metabolite (blue) names are according to BiGG. If the reactions SPODM and MOX are not removed from the model iJO1366, they can be used in this unrealistic pathway that generates ATP without any external input.}}{5}}
\newlabel{fig:egc_example}{{2}{5}}
\@writefile{lot}{\contentsline {table}{\numberline {1}{\ignorespaces Example of an Energy Generating Cycle that is possible in iJO1366}}{5}}
\newlabel{table:egc_example}{{1}{5}}
\citation{Henry2007-xp}
\citation{Noor2012-mp}
\@writefile{lof}{\contentsline {figure}{\numberline {3}{\ignorespaces \textbf  {An Energy Generating Cycle in \emph  {E. coli} consisting of a distributed thermodynamic bottleneck.} One can see, that the overall reaction of the three combined enzymes gives ADP\nobreakspace  {}+\nobreakspace  {}P$_i$\nobreakspace  {}$\rightleftharpoons $\nobreakspace  {}ATP\nobreakspace  {}+\nobreakspace  {}H$_2$O}}{6}}
\newlabel{fig:distributed_egc}{{3}{6}}
\@writefile{toc}{\contentsline {subsection}{\numberline {2.5}Thermodynamic Flux Balance Analysis (TFBA)}{6}}
\newlabel{eq:tfba1}{{6}{6}}
\newlabel{eq:tfba2}{{7}{6}}
\newlabel{eq:tfba3}{{8}{6}}
\newlabel{eq:tfba4}{{9}{6}}
\newlabel{eq:tfba5}{{10}{6}}
\newlabel{eq:tfba6}{{11}{6}}
\newlabel{eq:tfba7}{{12}{6}}
\citation{Hoppe2007-sw,Machado2017-gh}
\citation{Henry2007-xp}
\citation{Jankowski2008-hd,Noor2012-mp,Noor2013-an,Jinich2014-nv}
\citation{Gerstl2015a,Gerstl2015}
\citation{Schellenberger2011-bq}
\citation{Noor2012-qb}
\citation{Schellenberger2011-bq}
\@writefile{toc}{\contentsline {subsection}{\numberline {2.6}Loopless Flux Balance Analysis (ll-FBA)}{7}}
\newlabel{eq:llfba1}{{13}{7}}
\newlabel{eq:llfba2}{{14}{7}}
\newlabel{eq:llfba3}{{15}{7}}
\newlabel{eq:llfba4}{{17}{7}}
\newlabel{eq:llfba5}{{18}{7}}
\citation{Holzhutter2004-qj}
\citation{Lewis2010-rx,Schuetz2012-sv}
\citation{Desouki2015-lh}
\citation{Beard2002-xt}
\citation{Beard2004,Warren2007-wm,Reznik2013}
\citation{Kummel2006-px,Kummel2006-qn,Zamboni2008}
\citation{Saa2016}
\citation{Chan2017}
\citation{Kummel2006-px}
\citation{Kummel2006-px}
\citation{Kummel2006-px}
\@writefile{toc}{\contentsline {paragraph}{Limited adoption of ll-FBA}{8}}
\@writefile{toc}{\contentsline {paragraph}{Related methods and improvements}{8}}
\@writefile{toc}{\contentsline {subsection}{\numberline {2.7}Network-Embedded Thermodynamic (NET) analysis}{8}}
\newlabel{eq:net1}{{19}{8}}
\newlabel{eq:net2}{{20}{8}}
\citation{Zamboni2008}
\citation{Bennett2009-rm}
\citation{Bennett2009-rm}
\citation{Wilks2007-lh}
\citation{Bennett2009-rm}
\@writefile{toc}{\contentsline {subsection}{\numberline {2.8}Total energy dissipation rate}{9}}
\newlabel{eq:gdiss}{{24}{9}}
\@writefile{toc}{\contentsline {subsubsection}{\numberline {2.8.1}Energy dissipation at steady-state}{9}}
\@writefile{toc}{\contentsline {section}{\numberline {3}Results}{9}}
\@writefile{toc}{\contentsline {subsection}{\numberline {3.1}A compromise between ll-FBA and TFBA}{9}}
\@writefile{lot}{\contentsline {table}{\numberline {2}{\ignorespaces Table of currency metabolites, their standard Gibbs energies of formation, and bounded by their typical concentrations \cite  {Bennett2009-rm}.}}{10}}
\newlabel{table:potentials}{{2}{10}}
\newlabel{eq:stfba1}{{27}{10}}
\newlabel{eq:stfba2}{{28}{10}}
\newlabel{eq:stfba3}{{29}{10}}
\newlabel{eq:stfba4}{{30}{10}}
\newlabel{eq:stfba5}{{31}{10}}
\@writefile{toc}{\contentsline {subsection}{\numberline {3.2}Network-Embedded Semi-Thermodynamic analysis (NEST)}{10}}
\citation{Ebrahim2013-vw}
\bibdata{stfba_lib}
\bibcite{King2016-it}{{1}{2016}{{King et~al.}}{{King, Lu, Dr\IeC {\"a}ger, Miller, Federowicz, Lerman, Ebrahim, Palsson, and Lewis}}}
\bibcite{Lewis2012-mu}{{2}{2012}{{Lewis et~al.}}{{Lewis, Nagarajan, and Palsson}}}
\bibcite{Beard2002-xt}{{3}{2002}{{Beard et~al.}}{{Beard, Liang, and Qian}}}
\bibcite{Warren2007-wm}{{4}{2007}{{Warren and Jones}}{{}}}
\bibcite{Henry2007-xp}{{5}{2007}{{Henry et~al.}}{{Henry, Broadbelt, and Hatzimanikatis}}}
\bibcite{Schellenberger2011-bq}{{6}{2011}{{Schellenberger et~al.}}{{Schellenberger, Lewis, and Palsson}}}
\bibcite{Price2006-ua}{{7}{2006}{{Price et~al.}}{{Price, Thiele, and Palsson}}}
\@writefile{toc}{\contentsline {subsection}{\numberline {3.3}Using st-FBA for calculating total Gibbs energy dissipation}{11}}
\@writefile{toc}{\contentsline {subsection}{\numberline {3.4}Implementation of st-FBA}{11}}
\bibcite{Bordel2010-pl}{{8}{2010}{{Bordel and Nielsen}}{{}}}
\bibcite{Fleming2010-py}{{9}{2010}{{Fleming et~al.}}{{Fleming, Thiele, Provan, and Nasheuer}}}
\bibcite{Holzhutter2004-qj}{{10}{2004}{{Holzh{\"u}tter}}{{}}}
\bibcite{Fleming2009-um}{{11}{2009}{{Fleming et~al.}}{{Fleming, Thiele, and Nasheuer}}}
\bibcite{Kummel2006-qn}{{12}{2006{}}{{K\IeC {\"u}mmel et~al.}}{{K\IeC {\"u}mmel, Panke, and Heinemann}}}
\bibcite{Henry2006-nt}{{13}{2006}{{Henry et~al.}}{{Henry, Jankowski, Broadbelt, and Hatzimanikatis}}}
\bibcite{Hoppe2007-sw}{{14}{2007}{{Hoppe et~al.}}{{Hoppe, Hoffmann, and Holzh\IeC {\"u}tter}}}
\bibcite{De_Martino2012-cj}{{15}{2012}{{De~Martino et~al.}}{{De~Martino, Figliuzzi, De~Martino, and Marinari}}}
\bibcite{Tepper2013-gd}{{16}{2013}{{Tepper et~al.}}{{Tepper, Noor, Amador-Noguez, Haraldsd\IeC {\'o}ttir, Milo, Rabinowitz, Liebermeister, and Shlomi}}}
\bibcite{Nolan2006-eg}{{17}{2006}{{Nolan et~al.}}{{Nolan, Fenley, and Lee}}}
\bibcite{Nagrath2007-bn}{{18}{2007}{{Nagrath et~al.}}{{Nagrath, Avila-Elchiver, Berthiaume, Tilles, Messac, and Yarmush}}}
\bibcite{Boghigian2010-vz}{{19}{2010}{{Boghigian et~al.}}{{Boghigian, Shi, Lee, and Pfeifer}}}
\bibcite{Schilling2000-rn}{{20}{2000}{{Schilling et~al.}}{{Schilling, Letscher, and Palsson}}}
\bibcite{Price2002-ef}{{21}{2002}{{Price et~al.}}{{Price, Famili, Beard, and Palsson}}}
\bibcite{Wright2008-rh}{{22}{2008}{{Wright and Wagner}}{{}}}
\bibcite{Noor2012-qb}{{23}{2012{}}{{Noor et~al.}}{{Noor, Lewis, and Milo}}}
\bibcite{Fritzemeier2017-ba}{{24}{2017}{{Fritzemeier et~al.}}{{Fritzemeier, Hartleb, Szappanos, Papp, and Lercher}}}
\bibcite{DeMartino2013}{{25}{2013}{{De~Martino et~al.}}{{De~Martino, Capuani, Mori, De~Martino, and Marinari}}}
\bibcite{Desouki2015-lh}{{26}{2015}{{Desouki et~al.}}{{Desouki, Jarre, Gelius-Dietrich, and Lercher}}}
\bibcite{Carrera2014-ys}{{27}{2014}{{Carrera et~al.}}{{Carrera, Estrela, Luo, Rai, Tsoukalas, and Tagkopoulos}}}
\bibcite{Orth2011-qi}{{28}{2011}{{Orth et~al.}}{{Orth, Conrad, Na, Lerman, Nam, Feist, and Palsson}}}
\bibcite{Mavrovouniotis1996-dq}{{29}{1996}{{Mavrovouniotis}}{{}}}
\bibcite{Mavrovouniotis1993-zq}{{30}{1993}{{Mavrovouniotis}}{{}}}
\bibcite{Mavrovouniotis1990-wv}{{31}{1990}{{Mavrovouniotis}}{{}}}
\bibcite{Mavrovouniotis1991-kf}{{32}{1991}{{Mavrovouniotis}}{{}}}
\bibcite{Lardy1945-ze}{{33}{1945}{{Lardy and Ziegler}}{{}}}
\bibcite{Krimsky1959-mt}{{34}{1959}{{Krimsky}}{{}}}
\bibcite{Reeves1968-mq}{{35}{1968}{{Reeves et~al.}}{{Reeves, Menzies, and Hsu}}}
\bibcite{De_Meis1982-pe}{{36}{1982}{{de~Meis}}{{}}}
\bibcite{Flamholz2011}{{37}{2011}{{Flamholz et~al.}}{{Flamholz, Noor, Bar-Even, and Milo}}}
\bibcite{Noor2012-mp}{{38}{2012{}}{{Noor et~al.}}{{Noor, Bar-Even, Flamholz, Lubling, Davidi, and Milo}}}
\bibcite{Machado2017-gh}{{39}{}{{Machado et~al.}}{{Machado, Matos, Sonnenschein, and Andrejev}}}
\bibcite{Jankowski2008-hd}{{40}{2008}{{Jankowski et~al.}}{{Jankowski, Henry, Broadbelt, and Hatzimanikatis}}}
\bibcite{Noor2013-an}{{41}{2013}{{Noor et~al.}}{{Noor, Haraldsd{\'o}ttir, Milo, and Fleming}}}
\bibcite{Jinich2014-nv}{{42}{2014}{{Jinich et~al.}}{{Jinich, Rappoport, Dunn, Sanchez-Lengeling, Olivares-Amaya, Noor, Even, and Aspuru-Guzik}}}
\bibcite{Gerstl2015a}{{43}{2015{}}{{Gerstl et~al.}}{{Gerstl, Ruckerbauer, Mattanovich, Jungreuthmayer, and Zanghellini}}}
\bibcite{Gerstl2015}{{44}{2015{}}{{Gerstl et~al.}}{{Gerstl, Jungreuthmayer, and Zanghellini}}}
\bibcite{Lewis2010-rx}{{45}{2010}{{Lewis et~al.}}{{Lewis, Hixson, Conrad, Lerman, Charusanti, Polpitiya, Adkins, Schramm, Purvine, Lopez-Ferrer, Weitz, Eils, K{\"o}nig, Smith, and Palsson}}}
\bibcite{Schuetz2012-sv}{{46}{2012}{{Schuetz et~al.}}{{Schuetz, Zamboni, Zampieri, Heinemann, and Sauer}}}
\bibcite{Beard2004}{{47}{2004}{{Beard et~al.}}{{Beard, Babson, Curtis, and Qian}}}
\bibcite{Reznik2013}{{48}{2013}{{Reznik et~al.}}{{Reznik, Mehta, and Segr{\`e}}}}
\bibcite{Kummel2006-px}{{49}{2006{}}{{K\IeC {\"u}mmel et~al.}}{{K\IeC {\"u}mmel, Panke, and Heinemann}}}
\bibcite{Zamboni2008}{{50}{2008}{{Zamboni et~al.}}{{Zamboni, K{\"u}mmel, and Heinemann}}}
\bibcite{Saa2016}{{51}{2016}{{Saa and Nielsen}}{{}}}
\bibcite{Chan2017}{{52}{}{{Chan et~al.}}{{Chan, Wang, Dash, and Maranas}}}
\bibcite{Bennett2009-rm}{{53}{2009}{{Bennett et~al.}}{{Bennett, Kimball, Gao, Osterhout, Van~Dien, and Rabinowitz}}}
\bibcite{Wilks2007-lh}{{54}{2007}{{Wilks and Slonczewski}}{{}}}
\bibcite{Ebrahim2013-vw}{{55}{2013}{{Ebrahim et~al.}}{{Ebrahim, Lerman, Palsson, and Hyduke}}}
\bibstyle{unsrtnat}
